[
{
  "speakers": ["Registration Team"],
  "unix_end": 1509712200,
  "title": "Registration",
  "start": "10:00",
  "unix": 1509703200,
  "place": "Main Room",
  "desc": "Get signed in to the con. ID Please!"
},
{
  "speakers": ["Scotiacon"],
  "unix_end": 1509714000,
  "title": "Opening Ceremony",
  "start": "12:30",
  "unix": 1509712200,
  "place": "Main Room",
  "desc": "Our annual opening extravaganza."
},
{
  "speakers": ["Scotiacon"],
  "unix_end": 1509717600,
  "title": "Tea Party",
  "start": "13:00",
  "unix": 1509714000,
  "place": "Main Room",
  "desc": "After the massive success of last year, of course we have to bring this back again or risk a mutiny! So, pop along and get to know the others there. Please note that the cake is also back and is definitely not a lie."
},
{
  "speakers": ["Faruku"],
  "unix_end": 1509723000,
  "title": "All Welcome Faruku",
  "start": "14:30",
  "unix": 1509719400,
  "place": "Boardroom",
  "desc": "If you have any burning questions for this year’s scourge of the sea… Sorry – Guest of Honour, then this would be the time to ask them."
},
{
  "speakers": ["Parrot Trust"],
  "unix_end": 1509726600,
  "title": "Meet The Charity - Parrot Trust",
  "start": "15:30",
  "unix": 1509723000,
  "place": "Boardroom",
  "desc": "What’s a pirate without a parrot? And what’s a pirate con without supporting a charity helping parrots. So, this year, our chosen charity Parrot Trust Scotland have very graciously volunteered themselves to answer all the questions you may have for them."
},
{
  "speakers": ["Blaze Collie"],
  "unix_end": 1509730200,
  "title": "Photography 101",
  "start": "16:30",
  "unix": 1509726600,
  "place": "Summit",
  "desc": "New to photography? Not new to it but want to learn how to take better photos? Let Blaze help you get immediately better at photography by presenting widely accepted practices and guidelines, information, and answering questions.  He will also be doing live demos to show you what he’s talking about. Aimed at all experience levels. You can start taking better photos immediately with any camera."
},
{
  "speakers": ["Scotiacon"],
  "unix_end": 1509730200,
  "title": "Failsuits",
  "start": "16:30",
  "unix": 1509726600,
  "place": "Boardroom",
  "desc": "Striving to create the most interesting design of a fursuit using whatever can be found. Materials and equipment is provided so you can let loose your inner creative spirit. The winning team may bask in the glory of knowing that their design took the longest to fall apart and had the most inventive use of pipe cleaners."
},
{
  "speakers": ["Scotiacon"],
  "unix_end": 1509733800,
  "title": "Fursuit Charades",
  "start": "17:30",
  "unix": 1509730200,
  "place": "Boardroom",
  "desc":"To put simply, dress up in a costume and attempt to act out the words or situations provided. Yes it will become silly, no we are not going to stop running it!"
},
{
  "speakers": ["Scotiacon"],
  "unix_end": 1509732000,
  "title": "Alley Signup",
  "start": "17:30",
  "unix": 1509730200,
  "place": "Summit",
  "desc": "Sign up for Artists' Alley"
},
{
  "speakers": ["Faruku"],
  "unix_end":1509737400,
  "title": "Airbrushing Basics",
  "start": "18:30",
  "unix": 1509733800,
  "place": "Main Room",
  "desc": "The dos and don'ts of airbrushing! And some tips and tricks to help you get started, I'll be airbrushing a fursuit mask and will be answering questions live at the panel."
},
{
  "speakers": ["Scotiacon"],
  "unix_end":1509737400,		
  "title": "How to Survive Your First Con",
  "start": "18:30",	
  "unix": 1509733800,
  "place": "Boardroom",
  "desc": "This be yer first voyage? We’ll be easy on ye guiding ye through the stormy seas and answering any questions ye may have. Maybe thar will be a couple of old shanty tales too. Arr!"
},
{
  "speakers": ["Rode"],
  "unix_end": 1509741000,
  "title": "8 Out of Ten Furs",
  "start": "19:30",
  "unix": 1509737400,
  "place": "Boardroom",
  "desc": "Come along and join Røde and the gang for a mediocre rip off of a popular TV program. Dodgy effects, questionable production values and entertaining statistics await as we delve into our interpretation of a post-watershed classic!"
},
{
  "speakers": ["Danza"],
  "unix_end": 1509750000,
  "title": "Life is Goodish Part 2",
  "start": "21:30",
  "unix": 1509744600,
  "place": "Main Room",
  "desc": "Back again for another year of delightful cringe and possible comedy is another dramatic reading of the incredible (incredibly awful) notes sent to Danza and others.  This time with only 65% emotional scarring for another year!"
},
{
  "speakers": ["Scotiacon"],
  "unix_end": 1509757200,
  "title": "General Gaming",
  "start": "21:30",
  "unix": 1509744600,
  "place": "Summit",
  "desc": "The Summit Room is now available for general use and tabletop games" 
},
{
  "speakers": ["Rode"],
  "unix_end": 1509757200,
  "title": "Jackbox After Dark",
  "start": "23:00",
  "unix": 1509750000,
  "place": "Board Room",
  "desc": "Røde brings you Jackbox games - computer centric social gaming. Bring a smartphone or tablet, some beers, a few pounds for charity and get involved!"
},
{
  "speakers": ["Doveux","Seadragom"],
  "unix_end": 1509793200,
  "title": "Furiety Show",
  "start": "10:00",
  "unix": 1509789600,
  "place": "Main Room",
  "desc": "The wildly unqualified Doveux and Seadragom present an hour of music, dance and comedy for your viewing pleasure. Because what else are you going to be doing at 10:00 on a Saturday morning?"
},
{
  "speakers": ["Jack Frostpaws"],
  "unix_end": 1509793200,
  "title": "Paintball 101",
  "start": "10:00",
  "unix": 1509789600,
  "place": "Summit",
  "desc": "A quick insight into the game and joy of paintball, talking about the variety of game styles, game types, events and equipment that is available to make you want to play more"
},
{
  "speakers": ["Faruku"],
  "unix_end": 1509796800,
  "title": "Fursuit Q&A",
  "start": "11:00",
  "unix": 1509793200,
  "place": "Board Room",
  "desc": "Faruku is back to answer even more questions! This time about fursuits, fursuit building and all other fursuit construction type questions or problems you might have"
},
{
  "speakers": ["Chad Blackwell"],
  "unix_end": 1509800400,
  "title": "Fursuiting 101",
  "start": "12:00",
  "unix": 1509796800,
  "place": "Main Room",
  "desc": "What are Fursuits? We just don't know. Join us for an educational talk about fursuits, one of the most obscure and unseen parts of the furry fandom."
},
{
  "speakers": ["Hamolot"],
  "unix_end": 1509811200,
  "title": "Smash Bros Tournament",
  "start": "13:00",
  "unix": 1509800400,
  "place": "Board Room",
  "desc": "Back for its third year, we have Single and Team Ladders with prizes to be won in both. Grab your best Swashbuckling friends or fly your own flag to victory, come join us and make this another great year."
},
{
  "speakers": ["Mechs/Jax"],
  "unix_end": 1509807600,
  "title": "Who's Top Jax?",
  "start": "13:00",
  "unix": 1509800400,
  "place": "Summit",
  "desc": "Have you ever wanted to find out more about Blackjack, one of the most popular card games of all time. Well now is the perfect opportunity to learn and who better to learn from then a sneaky cat!"
},
{
  "speakers": ["Sayre"],
  "unix_end": 1509811200,
  "title": "Secrets of Puppeteering",
  "start": "15:00",
  "unix": 1509807600,
  "place": "Summit",
  "desc": "The secret is... the puppets aren't alive!"
},
{
  "speakers": ["Blizzy"],
  "unix_end": 1509816600,
  "title": "Eat Pirate",	
  "start": "16:00",
  "unix": 1509811200,
  "place": "Main Room",
  "desc": "Each year we have the chefs at the hotel make some very tasty food for you to try. All with a distinctly Scottish twist, with a bit of information on what you’re eating. "
},
{
  "speakers": ["Scotiacon"],
  "unix_end": 1509825600,
  "title": "Art Auction",
  "start": "18:30",
  "unix": 1509820200,
  "place": "Main Room",
  "desc": "Come along and bid on artworks from the convention's finest ARRtists!"
},
{
  "speakers": ["Alex","Kisumi"],
  "unix_end": 1509832800,
  "title": "Barking Blanks!!",
  "start": "20:30",
  "unix": 1509827400,
  "place": "Main Room",
  "desc": "That’s right, Scotacon’s very own Knightmare Furry Game show has returned with its crazy hosts, panel of judges and two challenger teams. This year’s challengers will look forward to a whole host of new games and challenges as well as the return of the Crystal Dome Shower Cubicle… So the question you have to ask yourself is…Are you brave enough to challenge the gauntlet and collect the dragon’s horde at the end of it"
},
{
  "speakers": ["Ceilfox"],
  "unix_end": 1509843600,
  "title": "Ceil's Karaoke Conundrum",
  "start": "22:00",
  "unix": 1509832800,
  "place": "Main Room",
  "desc": "There is a horrible rumour that if you give lots of money to charity, Silverfoxwolf will start singing for money. We’re not sure if it’s to make him stop or not. In either case, come along and belt out some tunes."
},
{
  "speakers": ["Booshie"],
  "unix_end": 1509879600,
  "title": "Life Drawing",
  "start": "10:00",
  "unix": 1509876000,
  "place": "Main Room",
  "desc": "After popular demand it has returned! This time with more lead and even more poses. Fruit may be included… No eating! So come join the great challenge and you might even earn a frame to house your new masterpiece!!"
},
{
  "speakers": ["Blizzy"],
  "unix_end": 1509883200,
  "title": "Tabletop RPG Panel",
  "start": "11:00",
  "unix": 1509879600,
  "place": "Summit",
  "desc": "Come Join Blizzy and let him take you through how to begin your very own adventure with friends.  He’ll impart tips and useful hints on how to really immerse everyone in your game and warn you of some of the more obvious pitfalls in store for you when running a game."
},
{
  "speakers": ["Inflatables Anonymous"],
  "unix_end": 1509885000,
  "title": "Airheads (and bodies and legs)",
  "start": "11:30",
  "unix": 1509881400,
  "place": "Main Room",
  "desc": "Vinyl! Now that I have your attention, this panel has nothing to do with turning musical disks and everything to do with big bouncy inflatables."
},
{
  "speakers": ["Sayre","Alex"],
  "unix_end": 1509888600,
  "title": "Fursuit Pirate Games",
  "start": "12:30",
  "unix": 1509885000,
  "place": "Board Room",
  "desc": "Battle in a number of games for the booty and try not to end up in Davy Jones’ Locker (not the Tentacley one, that’s just nasty) (first one to mention the Poop Deck walks the Plank!)"
},
{
  "speakers": ["Sayre"],
  "unix_end": 1509899400,
  "title": "Scotiacon's Super, Secret, Shocking Pub Quiz!",
  "start": "15:00",
  "unix": 1509894000,
  "place": "Main Room",
  "desc": "Questions in groups, answers in groups and a whole lot of trouble while trying to find them. Come along and see if you can beat our quiz!"
},
{
  "speakers": ["Scotiacon"],
  "unix_end": 1509903000,
  "title": "Mighty Macros: City's End",
  "start": "16:30",
  "unix": 1509894000,
  "place": "Main Room",
  "desc": "Note: This event is dangerous to regular furs, and potentially lethal for micro furs"
},
{
  "speakers": ["Ceilfox"],
  "unix_end": 1509906600,
  "title": "Fursuit Repair",
  "start": "17:30",
  "unix": 1509903000,
  "place": "Main Room",
  "desc": "Basic Fursuit repairs and maintenance. Learn ‘good practice’ ways to clean, repair and keep your suit looking at its best."
},
{
  "speakers": ["Scotiacon"],
  "unix_end": 1509912000,
  "title": "Closing Ceremony and Group Photograph",
  "start": "19:00",
  "unix": 1509908400,
  "place": "Main Room",
  "desc": "That's it, show's nearly over folks. Come and help give it the best send off!"
},
{
  "speakers": ["Scotiacon"],
  "unix_end": 1509926340,
  "title": "Final Highland Fling",
  "start": "21:00",
  "unix": 1509915600,
  "place": "Main Room",
  "desc": "Rounding off the convention with a good old song and dance. Beware of the cheesy music content of this event. The only way is up, baby, for you and me now."
},
{
  "speakers": ["Scotiacon"],
  "unix_end": 1509926340,
  "title": "Tabletop Gaming",
  "start": "19:00",
  "unix": 1509915600,
  "place": "Summit",
  "desc": "The summit is open for those who want to play games and not dance until they fall over!"
}
]
