[
    {
        "start": "2018-11-02T09:30:00.000Z",
        "startpretty": "09:30",
        "startunix": 1541151000,
        "finish": "2018-11-02T12:00:00.000Z",
        "finishunix": 1541160000,
        "title": "Registration",
        "speakers": "Reg Team",
        "desc": "Come and get signed in! ID PLEASE!",
        "place": "Boardroom"
    },
    {
        "start": "2018-11-02T12:00:00.000Z",
        "startpretty": "12:00",
        "startunix": 1541160000,
        "finish": "2018-11-02T12:30:00.000Z",
        "finishunix": 1541161800,
        "title": "Opening Ceremony",
        "speakers": "SFW & Ceilfox",
        "desc": "Wecome to Scotiacon. Time to relax, see old friends meet new ones and most of all enjoy yourself!",
        "place": "Main Stage"
    },
    {
        "start": "2018-11-02T12:30:00.000Z",
        "startpretty": "12:30",
        "startunix": 1541161800,
        "finish": "2018-11-02T13:30:00.000Z",
        "finishunix": 1541165400,
        "title": "Registration",
        "speakers": "Reg Team",
        "desc": "Come and get signed in! ID PLEASE!",
        "place": "Boardroom"
    },
    {
        "start": "2018-11-02T12:30:00.000Z",
        "startpretty": "12:30",
        "startunix": 1541161800,
        "finish": "2018-11-02T13:30:00.000Z",
        "finishunix": 1541165400,
        "title": "Tea Party",
        "speakers": "Scotiacon Team",
        "desc": "After the massive success of last year, of course we have to bring this back again or risk a mutiny! So, pop along and get to know the others there. Please note that the cake is also back and is definitely not a lie. (Is this joke getting old yet? Ach well. We’ll find out next year...)",
        "place": "Lounge"
    },
    {
        "start": "2018-11-02T13:30:00.000Z",
        "startpretty": "13:30",
        "startunix": 1541165400,
        "finish": "2018-11-02T14:30:00.000Z",
        "finishunix": 1541169000,
        "title": "All Welcome Syber",
        "speakers": "Silver and Syber",
        "desc": "Seems we have found our mysterious murderer. Curses, it's only our Guest of Honour! Still let’s not waste our opportunity to find out some information from her.",
        "place": "Boardroom"
    },
    {
        "start": "2018-11-02T15:00:00.000Z",
        "startpretty": "15:00",
        "startunix": 1541170800,
        "finish": "2018-11-02T17:00:00.000Z",
        "finishunix": 1541178000,
        "title": "An Introduction to Medieval Swordsmanship",
        "speakers": "The Vangaurd Centre",
        "desc": "This year Scotiacon will be getting our own very special lesson giving details on the history of Scottish medieval weaponry and fighting styles from Jonathan - a senior instructor at the Vanguard Centre.",
        "place": "Main Stage"
    },
    {
        "start": "2018-11-02T17:00:00.000Z",
        "startpretty": "17:00",
        "startunix": 1541178000,
        "finish": "2018-11-02T18:00:00.000Z",
        "finishunix": 1541181600,
        "title": "Meet the Charity",
        "speakers": "Saints Sled dog rescue",
        "desc": "This year Scotiacon will be getting our own very special lesson, giving details on the history of Scotland medieval weaponry and fighting styles from Jonathan; a senior instructor at the Vanguard Centre.",
        "place": "Boardroom"
    },
    {
        "start": "2018-11-02T17:00:00.000Z",
        "startpretty": "17:00",
        "startunix": 1541178000,
        "finish": "2018-11-02T18:00:00.000Z",
        "finishunix": 1541181600,
        "title": "Armour Class",
        "speakers": "Buckminster ",
        "desc": "Well you’ve just learnt a little about the weapons from times past so seems only sensible to learn a little about the armour from the that time and maybe even try it on!",
        "place": "Summit 2"
    },
    {
        "start": "2018-11-02T17:30:00.000Z",
        "startpretty": "17:30",
        "startunix": 1541179800,
        "finish": "2018-11-02T18:00:00.000Z",
        "finishunix": 1541181600,
        "title": "Alley Signup",
        "speakers": "Dealers Team",
        "place": "Summit 3"
    },
    {
        "start": "2018-11-02T18:00:00.000Z",
        "startpretty": "18:00",
        "startunix": 1541181600,
        "finish": "2018-11-02T19:00:00.000Z",
        "finishunix": 1541185200,
        "title": "Fursuit Charades",
        "speakers": "Scotskunk ",
        "desc": "To put it simply, dress up in your expensive costume and attempt to act out the words or situations provided. Yes, it will become silly and no we are we’re never going to stop running it!",
        "place": "Main Stage"
    },
    {
        "start": "2018-11-02T18:00:00.000Z",
        "startpretty": "18:00",
        "startunix": 1541181600,
        "finish": "2018-11-02T19:00:00.000Z",
        "finishunix": 1541185200,
        "title": "How to Survive your First Con",
        "speakers": "Rik McCloud and Ashdon",
        "desc": "Never been to a furry convention before? Unsure of what to expect? Don’t know what is what? Get answers to these and many more questions here!",
        "place": "Boardroom"
    },
    {
        "start": "2018-11-02T19:00:00.000Z",
        "startpretty": "19:00",
        "startunix": 1541185200,
        "finish": "2018-11-02T20:00:00.000Z",
        "finishunix": 1541188800,
        "title": "Failsuits",
        "speakers": "Silverfoxwolf and Syber",
        "desc": "Create the most interesting design of a fursuit using whatever can be found. Materials and equipment is provided so you can let loose your inner creative spirit. The winning team may bask in the glory of knowing that their design took the longest to fall apart and had the most inventive use of pipe cleaners.",
        "place": "Main Stage"
    },
    {
        "start": "2018-11-02T19:00:00.000Z",
        "startpretty": "19:00",
        "startunix": 1541185200,
        "finish": "2018-11-02T20:00:00.000Z",
        "finishunix": 1541188800,
        "title": "The Messenger Trails",
        "speakers": "Rogerg ",
        "desc": "Can’t have a medieval theme without a mediaeval style game. This year one of our own has come up with a life size version of snakes and ladders for dummies and yes you the public are the dummies, come join watch the hilarity or even join in yourself, you might even win a prize!",
        "place": "Bar"
    },
    {
        "start": "2018-11-02T20:30:00.000Z",
        "startpretty": "20:30",
        "startunix": 1541190600,
        "finish": "2018-11-02T21:30:00.000Z",
        "finishunix": 1541194200,
        "title": "Would I Lie Awoo?",
        "speakers": "Scotskunk ",
        "desc": "Based on the popular TV parlour show of a similar name, join ScotSkunk and his two teams of underpaid guests as they go through their tales of truthful tittlement or false flabbergasts.",
        "place": "Boardroom"
    },
    {
        "start": "2018-11-02T20:30:00.000Z",
        "startpretty": "20:30",
        "startunix": 1541190600,
        "finish": "2018-11-03T01:00:00.000Z",
        "finishunix": 1541206800,
        "title": "Chill and Games – Kill Team edition",
        "speakers": "Blizzy Artic Fox",
        "desc": "Like every year, Scotiacon likes to host a nice relaxing evening with some table to game in the bar restaurant area or console games in the Summit room. This year we’re even hosting some special games each night. Friday's game is Warhammer's 40k Kill Team is a table top miniatures game.",
        "place": "Lounge"
    },
    {
        "start": "2018-11-02T21:30:00.000Z",
        "startpretty": "21:30",
        "startunix": 1541194200,
        "finish": "2018-11-02T23:00:00.000Z",
        "finishunix": 1541199600,
        "title": "Danza's Life is Goodish Volume 3",
        "speakers": "Danza",
        "desc": "Back again for its third year! With the assistance of a bit of wine Danza delves into the murky depths of DMs, notes and messages sent to himself and others with his voice, PowerPoint and word class animation skills as his tools.",
        "place": "Main Stage"
    },
    {
        "start": "2018-11-02T23:00:00.000Z",
        "startpretty": "23:00",
        "startunix": 1541199600,
        "finish": "2018-11-03T01:00:00.000Z",
        "finishunix": 1541206800,
        "title": "Slumber Movie Night",
        "speakers": "Ashdon ",
        "desc": "Bring your fursuits and Kigus! it’s time for a good old-fashioned movie night! Laughs, cuddles and hot chocolate here!",
        "place": "Main Stage"
    },
    {
        "start": "2018-11-03T10:00:00.000Z",
        "startpretty": "10:00",
        "startunix": 1541239200,
        "finish": "2018-11-03T13:00:00.000Z",
        "finishunix": 1541250000,
        "title": "Photoshoot",
        "speakers": "Scotiacon Team",
        "desc": "Have your photo taken by our resident photo fox. Theme fitting props and accessories are provided to allow you to get into the spirit of the convention and create photographic memories of your time with us.",
        "place": "Photoshoot Area"
    },
    {
        "start": "2018-11-03T11:00:00.000Z",
        "startpretty": "11:00",
        "startunix": 1541242800,
        "finish": "2018-11-03T12:00:00.000Z",
        "finishunix": 1541246400,
        "title": "So you want to be a fursuiter?",
        "speakers": "Ethan Staghorn and Typhon",
        "desc": "What are Fursuits? We just don’t know. Join us for an educational talk about fursuits, one of the most obscure and unseen parts of the furry fandom. Wearing or owning a fursuit not required.",
        "place": "Main Stage"
    },
    {
        "start": "2018-11-03T11:00:00.000Z",
        "startpretty": "11:00",
        "startunix": 1541242800,
        "finish": "2018-11-03T15:30:00.000Z",
        "finishunix": 1541259000,
        "title": "Artist Alley",
        "speakers": "Scotiacon Team",
        "desc": "If Dealers Den isn’t enough for your artist fix, we have an artists alley that will have even more people looking to sell their wares and commissions.",
        "place": "Lounge"
    },
    {
        "start": "2018-11-03T12:00:00.000Z",
        "startpretty": "12:00",
        "startunix": 1541246400,
        "finish": "2018-11-03T12:30:00.000Z",
        "finishunix": 1541248200,
        "title": "Species Meet Ups - Feline",
        "speakers": "Scotiacon Team",
        "desc": "Message to all cats: Assemble by the bar and judge others quietly!",
        "place": "Lounge"
    },
    {
        "start": "2018-11-03T12:00:00.000Z",
        "startpretty": "12:00",
        "startunix": 1541246400,
        "finish": "2018-11-03T13:30:00.000Z",
        "finishunix": 1541251800,
        "title": "Informal Improv",
        "speakers": "Seadragom ",
        "desc": "It’s like “Whose Line Is It Anyway?” but with furries. And you too, I guess. No-pressure improv games and fun with like-minded individuals",
        "place": "Boardroom"
    },
    {
        "start": "2018-11-03T12:30:00.000Z",
        "startpretty": "12:30",
        "startunix": 1541248200,
        "finish": "2018-11-03T15:30:00.000Z",
        "finishunix": 1541259000,
        "title": "Smash Brothers Tournament",
        "speakers": "Zenon and Kingshaw",
        "desc": "Yep that right Smash Brothers tournament if returning for a fourth year running. Much like last year setup they’ll be single player tournament and team player, are you knight enough to claim the honour of victory?",
        "place": "Summit 2"
    },
    {
        "start": "2018-11-03T13:00:00.000Z",
        "startpretty": "13:00",
        "startunix": 1541250000,
        "finish": "2018-11-03T13:30:00.000Z",
        "finishunix": 1541251800,
        "title": "Species Meet Ups - Aquatics & Marsupials",
        "speakers": "Scotiacon Team",
        "desc": "Message to all cats: Assemble by the bar and judge others quietly!",
        "place": "Lounge"
    },
    {
        "start": "2018-11-03T13:00:00.000Z",
        "startpretty": "13:00",
        "startunix": 1541250000,
        "finish": "2018-11-03T15:00:00.000Z",
        "finishunix": 1541257200,
        "title": "ScotiaCon Dance Competition",
        "speakers": "Ashdon ",
        "desc": "Shake your tail feathers…or fluff…whatever! It’s time for the first ever Scotiacon Dance Competition! Watch as dancers display their skill and work their moves to impress the judges to win one of the coveted trophies.",
        "place": "Main Stage"
    },
    {
        "start": "2018-11-03T13:00:00.000Z",
        "startpretty": "13:00",
        "startunix": 1541250000,
        "finish": "2018-11-03T15:30:00.000Z",
        "finishunix": 1541259000,
        "title": "Photoshoot",
        "speakers": "Scotiacon Team",
        "desc": "Have your photo taken by our resident photo fox. Theme fitting props and accessories are provided to allow you to get into the spirit of the convention and create photographic memories of your time with us.",
        "place": "Photoshoot Area"
    },
    {
        "start": "2018-11-03T14:00:00.000Z",
        "startpretty": "14:00",
        "startunix": 1541253600,
        "finish": "2018-11-03T14:30:00.000Z",
        "finishunix": 1541255400,
        "title": "Species Meet Ups - Dragons / Reptiles/ Avions",
        "speakers": "Scotiacon Team",
        "desc": "Meet up with your fellow species! Suiters, non-suiters and photographers all welcome. Just think of it as another way to meet people while getting a chance to snap a few photos",
        "place": "Lounge"
    },
    {
        "start": "2018-11-03T15:00:00.000Z",
        "startpretty": "15:00",
        "startunix": 1541257200,
        "finish": "2018-11-03T15:30:00.000Z",
        "finishunix": 1541259000,
        "title": "Species Meet Ups - Canines & Vulpines",
        "speakers": "Scotiacon Team",
        "desc": "Meet up with your fellow species! Suiters, non-suiters and photographers all welcome. Just think of it as another way to meet people while getting a chance to snap a few photos",
        "place": "Lounge"
    },
    {
        "start": "2018-11-03T15:00:00.000Z",
        "startpretty": "15:00",
        "startunix": 1541257200,
        "finish": "2018-11-03T16:00:00.000Z",
        "finishunix": 1541260800,
        "title": "Fursuit Making with Cub",
        "speakers": "Cub",
        "desc": "An explanation of the fursuit making process from start to finish with plenty of Q&A!",
        "place": "Boardroom"
    },
    {
        "start": "2018-11-03T16:00:00.000Z",
        "startpretty": "16:00",
        "startunix": 1541260800,
        "finish": "2018-11-03T17:30:00.000Z",
        "finishunix": 1541266200,
        "title": "Eat Scotland Medieval Style!",
        "speakers": "Blizzy Artic Fox",
        "desc": "Each year we have the chefs at the hotel make some very tasty food for you to try. All with a distinctly Scottish twist and a bit of information on what you’re eating. Normally this will be a starter, a main and a dessert, but this will vary from year to year as to exactly what is provided.",
        "place": "Lounge"
    },
    {
        "start": "2018-11-03T18:00:00.000Z",
        "startpretty": "18:00",
        "startunix": 1541268000,
        "finish": "2018-11-03T18:30:00.000Z",
        "finishunix": 1541269800,
        "title": "Species Meet Ups - Realistic Fursuits",
        "speakers": "Scotiacon Team",
        "desc": "Meet up with your fellow species! Suiters, non-suiters and photographers all welcome. Just think of it as another way to meet people while getting a chance to snap a few photos",
        "place": "Lounge"
    },
    {
        "start": "2018-11-03T18:30:00.000Z",
        "startpretty": "18:30",
        "startunix": 1541269800,
        "finish": "2018-11-03T20:00:00.000Z",
        "finishunix": 1541275200,
        "title": "Art Auction",
        "speakers": "Scotiacon Team",
        "desc": "Like every year Scotiacon gives you a chance to claim a piece for your very own while raising some money for charity, so come down and get your bidding paw ready as we’re more than happy to help lighten your wallet, or purse!",
        "place": "Main Stage"
    },
    {
        "start": "2018-11-03T20:30:00.000Z",
        "startpretty": "20:30",
        "startunix": 1541277000,
        "finish": "2018-11-03T22:00:00.000Z",
        "finishunix": 1541282400,
        "title": "Barking Blanks",
        "speakers": "Alexander Silverfang and Kisumi",
        "desc": "Do you really think this horror show will ever stop?! We're happy to tell you it’ll never stop, in fact we’ve yet again increased our budget this year and managed to ‘convince’ some of our older panellists to return! Come join our crazy hosts, panel of judges and two challenger teams. Watch how they face the new challenges together as well as the return of some old favourites. Don't forget the Crystal Dome Shower Cubicle! No refunds accepted!",
        "place": "Main Stage & Boardroom"
    },
    {
        "start": "2018-11-03T21:00:00.000Z",
        "startpretty": "21:00",
        "startunix": 1541278800,
        "finish": "2018-11-03T23:30:00.000Z",
        "finishunix": 1541287800,
        "title": "Artist Chillout",
        "speakers": "Scotiacon Team",
        "desc": "A relaxed meet up for artists, Pro’s and Amatures alike where we can draw, sketch, chat and share skills. Who knows maybe someone will want to do a trade with you or show you a new skill. Please try and bring your own supplies if you can!",
        "place": "Lounge"
    },
    {
        "start": "2018-11-03T21:00:00.000Z",
        "startpretty": "21:00",
        "startunix": 1541278800,
        "finish": "2018-11-03T23:30:00.000Z",
        "finishunix": 1541287800,
        "title": "The Wining",
        "speakers": "Birdy the Scottish Gryphon",
        "desc": "This is the “furry mixer” event, it’s about meeting people! Saying hello to old friends, new ones and enjoying a bit of conversation! You are welcome to bring your favourite bottle of wine and taste it with the others, plus you can’t forget the accompaniments.",
        "place": "Summit 2"
    },
    {
        "start": "2018-11-03T22:00:00.000Z",
        "startpretty": "22:00",
        "startunix": 1541282400,
        "finish": "2018-11-04T01:00:00.000Z",
        "finishunix": 1541293200,
        "title": "Chill and Games – Werewolf ",
        "speakers": "Blizzy Artic Fox",
        "desc": "Like every year, Scotiacon likes to host a nice relaxing evening with some table to game in the bar restaurant area or console games in the Summit room. This year we’re even hosting some special games each night, for Saturday it’s One Night Werewolf.",
        "place": "Lounge"
    },
    {
        "start": "2018-11-03T22:00:00.000Z",
        "startpretty": "22:00",
        "startunix": 1541282400,
        "finish": "2018-11-04T01:00:00.000Z",
        "finishunix": 1541293200,
        "title": "Werewolf ",
        "speakers": "Acey Woofer",
        "desc": "Come and attempt to survive a week at Millers Hollow. Each night you'll take your role in a preset scenario and attempt to outwit your fellow townsfolk. Each night will be scored and a prizes are up for grabs for our best survivors. Sign up and join the fun.",
        "place": "Lounge"
    },
    {
        "start": "2018-11-03T22:00:00.000Z",
        "startpretty": "22:00",
        "startunix": 1541282400,
        "finish": "2018-11-04T01:00:00.000Z",
        "finishunix": 1541293200,
        "title": "Ceil’s Karaoke Conundrum",
        "speakers": "Ceil and Chamesh",
        "desc": "There is a horrible rumour that if you give lots of money to charity, Silverfoxwolf will start singing for money. We’re not sure if it’s to make him stop or not. In either case, come along and belt out some tunes",
        "place": "Main Stage"
    },
    {
        "start": "2018-11-04T10:00:00.000Z",
        "startpretty": "10:00",
        "startunix": 1541325600,
        "finish": "2018-11-04T11:00:00.000Z",
        "finishunix": 1541329200,
        "title": "Booshie’s Life Drawing",
        "speakers": "Booshie ",
        "desc": "Back through popular demand! This time with more lead and even more poses. Fruit may be included… No eating! So come join the great challenge and you might even earn a frame to house your new masterpiece!!",
        "place": "Main Stage"
    },
    {
        "start": "2018-11-04T11:00:00.000Z",
        "startpretty": "11:00",
        "startunix": 1541329200,
        "finish": "2018-11-04T11:30:00.000Z",
        "finishunix": 1541331000,
        "title": "Species Meet Ups - Hoofers",
        "speakers": "Scotiacon Team",
        "desc": "Meet up with your fellow species! Suiters, non-suiters and photographers all welcome. Just think of it as another way to meet people while getting a chance to snap a few photos",
        "place": "Lounge"
    },
    {
        "start": "2018-11-04T11:00:00.000Z",
        "startpretty": "11:00",
        "startunix": 1541329200,
        "finish": "2018-11-04T12:00:00.000Z",
        "finishunix": 1541332800,
        "title": "Photoshoot – Last chance saloon",
        "speakers": "Scotiacon Team",
        "desc": "Have your photo taken by our resident photo fox. Theme fitting props and accessories are provided to allow you to get into the spirit of the convention and create photographic memories of your time with us.",
        "place": "Photoshoot Area"
    },
    {
        "start": "2018-11-04T11:00:00.000Z",
        "startpretty": "11:00",
        "startunix": 1541329200,
        "finish": "2018-11-04T12:00:00.000Z",
        "finishunix": 1541332800,
        "title": "An introduction to Table Top Roleplay",
        "speakers": "Blizzy Artic Fox",
        "desc": "Come Join Blizzy and let him take you through how to begin your very own adventure with friends. He has now a good ten years of experience in the table top gaming world and is here to discuss past experiences from playing and running a campaign",
        "place": "Summit 2"
    },
    {
        "start": "2018-11-04T11:30:00.000Z",
        "startpretty": "11:30",
        "startunix": 1541331000,
        "finish": "2018-11-04T12:30:00.000Z",
        "finishunix": 1541334600,
        "title": "Airheads (and bodies, and legs) Anonymous",
        "speakers": "Ceilfox ",
        "desc": "Airheads…. and paws, and bodies and…. well, air filled things!",
        "place": "Main Stage"
    },
    {
        "start": "2018-11-04T13:00:00.000Z",
        "startpretty": "13:00",
        "startunix": 1541336400,
        "finish": "2018-11-04T14:00:00.000Z",
        "finishunix": 1541340000,
        "title": "The Mass Fursuit Gathering",
        "speakers": "Scotiacon Team",
        "desc": "Well you’ve had all your small group and individual photos, now it’s time for the mass photo of all that fluff or scales and yes even feathers!",
        "place": "Main Stage"
    },
    {
        "start": "2018-11-04T13:00:00.000Z",
        "startpretty": "13:00",
        "startunix": 1541336400,
        "finish": "2018-11-04T14:00:00.000Z",
        "finishunix": 1541340000,
        "title": "Fursuit Performance 101",
        "speakers": "Evie Kitty",
        "desc": "Well you’ve had all your small group and individual photos, now it’s time for the mass photo of all that fluff or scales and yes even feathers!",
        "place": "Summit 2"
    },
    {
        "start": "2018-11-04T14:00:00.000Z",
        "startpretty": "14:00",
        "startunix": 1541340000,
        "finish": "2018-11-04T15:30:00.000Z",
        "finishunix": 1541345400,
        "title": "Fursuit Games",
        "speakers": "Sayre and Alexander Silverfang",
        "desc": "Well brave Sir Knight, Time to test your knightly and investigatory skills in this year’s Fursuit Games. So, bring your Swords, spy glass and wits as you’ll be needing them for this year, that’s if you cherish your hides!",
        "place": "Main Stage"
    },
    {
        "start": "2018-11-04T14:00:00.000Z",
        "startpretty": "14:00",
        "startunix": 1541340000,
        "finish": "2018-11-04T15:30:00.000Z",
        "finishunix": 1541345400,
        "title": "Dungeons and Dragons: Pathfinder",
        "speakers": "Blizzy Artic Fox",
        "desc": "Step into a very medieval setting for a one-off session of DnD Pathfinder. A small band of heroes prepare themselves in a dusty old tavern to escort a caravan through the dark and foreboding woods where many have ended up missing and lost in the strange wood…",
        "place": "Lounge"
    },
    {
        "start": "2018-11-04T15:30:00.000Z",
        "startpretty": "15:30",
        "startunix": 1541345400,
        "finish": "2018-11-04T16:30:00.000Z",
        "finishunix": 1541349000,
        "title": "Nailed It!",
        "speakers": "Ixis",
        "desc": "Ever wondered how to recreate those Instagram nail looks but never knew where to start? Join Ixis as she talks you through the tips and techniques of beginner nail art with a furry twist. Equipment will be provided, all welcome.",
        "place": "Boardroom"
    },
    {
        "start": "2018-11-04T15:30:00.000Z",
        "startpretty": "15:30",
        "startunix": 1541345400,
        "finish": "2018-11-04T16:30:00.000Z",
        "finishunix": 1541349000,
        "title": "Furry Finance & Credit 101",
        "desc": "Adulting can suck, so Viper has decided to make it more fun! Join him as he goes over the basics of how to get a good start in the daunting world of finances, including how to use credit responsibly and what traps to avoid in the world of banking.",
        "place": "Summit 2"
    },
    {
        "start": "2018-11-04T16:00:00.000Z",
        "startpretty": "16:00",
        "startunix": 1541347200,
        "finish": "2018-11-04T17:30:00.000Z",
        "finishunix": 1541352600,
        "title": "Scotiacon’s Secret Shocking Pub Quiz",
        "speakers": "Sayre and Rico",
        "desc": "Questions in groups, answers in groups and a whole lot of trouble while trying to find them. Come along and see if you can beat our quiz!",
        "place": "Lounge"
    },
    {
        "start": "2018-11-04T17:30:00.000Z",
        "startpretty": "17:30",
        "startunix": 1541352600,
        "finish": "2018-11-04T18:30:00.000Z",
        "finishunix": 1541356200,
        "title": "Fursuit Repairs",
        "speakers": "Ceilfox and Syber",
        "desc": "Basic Fursuit repairs and maintenance. Learn ‘good practice’ ways to clean, repair and keep your suit looking at its best.",
        "place": "Boardroom"
    },
    {
        "start": "2018-11-04T19:00:00.000Z",
        "startpretty": "19:00",
        "startunix": 1541358000,
        "finish": "2018-11-04T19:00:00.000Z",
        "finishunix": 1541358000,
        "title": "Dreamworld and Maulody Concert - Cancelled",
        "speakers": "Erin San Juan and Night Moonbayer",
        "desc": "Sorry this has unfortunetly been cancelled, perhaps next year",
        "place": "Main Stage"
    },
    {
        "start": "2018-11-04T19:30:00.000Z",
        "startpretty": "19:30",
        "startunix": 1541359800,
        "finish": "2018-11-04T20:30:00.000Z",
        "finishunix": 1541363400,
        "title": "Closing Ceremony",
        "speakers": "SFW & Ceilfox",
        "desc": "Time to say goodbye to Scotiacon. Till next year",
        "place": "Main Stage"
    },
    {
        "start": "2018-11-04T21:00:00.000Z",
        "startpretty": "21:00",
        "startunix": 1541365200,
        "finish": "2018-11-04T23:00:00.000Z",
        "finishunix": 1541372400,
        "title": "Scotiacon’s Open Mic and Band Night",
        "speakers": "Mattabee ",
        "desc": "Time to bust out your guitar and play Wonderwall with other musically talented furries! This is Scotiacon’s very own band and open mic night. So, come along and show off your talent or just come along listen to the Electric drum-kit, bass and guitar will be provided!",
        "place": "Main Stage"
    },
    {
        "start": "2018-11-04T21:00:00.000Z",
        "startpretty": "21:00",
        "startunix": 1541365200,
        "finish": "2018-11-04T23:00:00.000Z",
        "finishunix": 1541372400,
        "title": "Two Rooms and a Boom",
        "speakers": "Frío Wuffle",
        "desc": "A secret identity social deduction game. Two teams compete to achieve their end goal by uncovering the identity of their allies and foes. The outcome depends on events during the game and the final result. If you're a fan of werewolf or similar games then you might want to check this one out. Please arrive promptly.",
        "place": "Summit 2"
    },
    {
        "start": "2018-11-04T21:00:00.000Z",
        "startpretty": "21:00",
        "startunix": 1541365200,
        "finish": "2018-11-05T01:00:00.000Z",
        "finishunix": 1541379600,
        "title": "Chill and Games",
        "speakers": "Blizzy Artic Fox",
        "desc": "Like every year, Scotiacon likes to host a nice relaxing evening with some table to game in the bar restaurant area or console games in the Summit room. This year we’re even hosting some special games each night, for Sunday it’s Two Rooms and a Boom.",
        "place": "Lounge"
    },
    {
        "start": "2018-11-04T23:00:00.000Z",
        "startpretty": "23:00",
        "startunix": 1541372400,
        "finish": "2018-11-05T01:00:00.000Z",
        "finishunix": 1541379600,
        "title": "Murdered Dog Afterparty",
        "speakers": "Scotiacon Team",
        "desc": "Rounding off the convention with a good old song and dance. Beware of the cheesy music content of this event. To be honest if you’re at this party we were already killed by the music the night before.",
        "place": "Main Stage"
    }
]
